title,type,url,rating,date
Maryada Ramanna - reTake,movie,https://www.youtube.com/watch?v=XV3DnjT_pxs,TBD,2017-11-28T22:37:54.000Z
Coco - Movie Review,movie,https://www.youtube.com/watch?v=mo-kPmE3XDg,TBD,2017-11-19T00:38:53.000Z
Justice League - Movie Review,movie,https://www.youtube.com/watch?v=-IMvijSDM1o,TBD,2017-11-14T23:00:21.000Z
The Florida Project - Movie Review,movie,https://www.youtube.com/watch?v=0f7T_n_ZhaI,TBD,2017-11-12T13:50:42.000Z
Downsizing - Movie Review,movie,https://www.youtube.com/watch?v=cVtPAboybDI,TBD,2017-11-08T16:33:03.000Z
Paddington 2 - Movie Review,movie,https://www.youtube.com/watch?v=RwcHcWgjYkY,TBD,2017-11-05T16:52:24.000Z
Wonder Wheel - Movie Review,movie,https://www.youtube.com/watch?v=HiQak19GCbk,TBD,2017-11-03T20:54:09.000Z
A Bad Moms Christmas - Movie Review,movie,https://www.youtube.com/watch?v=9o3F099SSQU,TBD,2017-11-01T13:00:01.000Z
Three Billboards Outside Ebbing; Missouri - Movie Review,movie,https://www.youtube.com/watch?v=L_AksX6Zd1Y,TBD,2017-10-30T19:51:00.000Z
Dave Made a Maze - Movie Review,movie,https://www.youtube.com/watch?v=-pyKwFEgVnY,TBD,2017-10-25T21:42:16.000Z
The Shape of Water - Movie Review,movie,https://www.youtube.com/watch?v=wRstopjStEk,TBD,2017-10-22T10:24:51.000Z
Thor: Ragnarok - Movie Review,movie,https://www.youtube.com/watch?v=dpo21aKdRGQ,TBD,2017-10-19T00:36:41.000Z
Blade of the Immortal - Movie Review,movie,https://www.youtube.com/watch?v=v1Ms5g35zvg,TBD,2017-10-16T18:53:55.000Z
Lucky - Movie Review,movie,https://www.youtube.com/watch?v=SFptIkKBofQ,TBD,2017-10-11T21:47:11.000Z
My Friend Dahmer - Movie Review,movie,https://www.youtube.com/watch?v=Ga-nE7Ug37c,TBD,2017-10-09T19:52:47.000Z
Mayhem - Movie Review,movie,https://www.youtube.com/watch?v=8O6T2Pg5DUQ,TBD,2017-10-06T17:19:18.000Z
Blade Runner 2049 - Movie Review,movie,https://www.youtube.com/watch?v=mpnktLZNSQs,TBD,2017-10-03T19:17:55.000Z
The LEGO Ninjago Movie - Movie Review,movie,https://www.youtube.com/watch?v=O3YrDf6OmXI,TBD,2017-10-01T16:32:20.000Z
It - Movie Review,movie,https://www.youtube.com/watch?v=bdYuJY3I74U,TBD,2017-09-29T14:37:36.000Z
Cult of Chucky - Movie Review,movie,https://www.youtube.com/watch?v=yPwYu1IPnNU,TBD,2017-09-26T22:07:55.000Z
My Little Pony: The Movie - Movie Review,movie,https://www.youtube.com/watch?v=w4RNu1G3Jmo,TBD,2017-09-24T16:13:05.000Z
Kingsman: The Golden Circle - Movie Review,movie,https://www.youtube.com/watch?v=h2N--5Dskp8,TBD,2017-09-18T21:41:18.000Z
Talvar - Movie Review,movie,https://www.youtube.com/watch?v=kN9-JUXtGTA,TBD,2017-09-16T19:15:49.000Z
2600 Subscribers - Channel Update,movie,https://www.youtube.com/watch?v=3O9s-IWDMCs,TBD,2017-09-13T16:39:47.000Z
Mother! - Movie Review,movie,https://www.youtube.com/watch?v=g7NClYbSKT8,TBD,2017-09-08T20:35:35.000Z
Airlift - Movie Review,movie,https://www.youtube.com/watch?v=ycjjlC4QEAA,TBD,2017-09-04T22:00:28.000Z
American Made - Movie Review,movie,https://www.youtube.com/watch?v=ZLbW_MgK6-E,TBD,2017-08-31T22:10:23.000Z
Udta Punjab - Movie Review,movie,https://www.youtube.com/watch?v=xTOemFrRBAs,TBD,2017-08-29T19:19:32.000Z
Daughters of Destiny - Documentary Series Review,movie,https://www.youtube.com/watch?v=dUEcUaNK3-c,TBD,2017-08-27T18:12:58.000Z
Logan Lucky - Movie Review,movie,https://www.youtube.com/watch?v=q32Z-93N1YM,TBD,2017-08-24T21:05:32.000Z
Sairat - Movie Review,movie,https://www.youtube.com/watch?v=H8G6LTGyp6A,TBD,2017-08-18T17:48:23.000Z
Pink - Movie Review,movie,https://www.youtube.com/watch?v=9E2DkgMi7z4,TBD,2017-08-15T21:55:09.000Z
The Emoji Movie - Movie Review,movie,https://www.youtube.com/watch?v=DOCw4E_Nq6A,TBD,2017-07-27T23:31:25.000Z
Buddy Loves Tollywood - Eega (Reaction + Review),movie,https://www.youtube.com/watch?v=DnrooaU9o2w,TBD,2017-07-26T07:49:43.000Z
Dunkirk - Movie Review,movie,https://www.youtube.com/watch?v=VTG4a798Jd8,TBD,2017-07-22T11:19:23.000Z
Valerian and the City of a Thousand Planets - Movie Review,movie,https://www.youtube.com/watch?v=VBZuoI9cEjQ,TBD,2017-07-14T22:58:33.000Z
War for the Planet of the Apes - Movie Review,movie,https://www.youtube.com/watch?v=d5_o6sxupJs,TBD,2017-07-11T23:14:43.000Z
Spider-Man: Homecoming - Movie Review,movie,https://www.youtube.com/watch?v=upjDZR-_d3c,TBD,2017-06-29T23:51:56.000Z
Tubelight - Movie Review,movie,https://www.youtube.com/watch?v=b0KSCejxnDQ,TBD,2017-06-28T16:37:11.000Z
Despicable Me 3 - Movie Review,movie,https://www.youtube.com/watch?v=DeYGsgvs-cQ,TBD,2017-06-26T16:45:45.000Z
Baby Driver - Movie Review,movie,https://www.youtube.com/watch?v=4efUtvwKqO8,TBD,2017-06-25T13:27:26.000Z
Wonder Woman - Movie Review,movie,https://www.youtube.com/watch?v=V9ZBYocDxtM,TBD,2017-06-18T10:22:12.000Z
The Beguiled - Movie Review,movie,https://www.youtube.com/watch?v=g8e9-HjTPwU,TBD,2017-06-16T13:03:09.000Z
Dangal - Movie Review,movie,https://www.youtube.com/watch?v=cM1gUkMnsU0,TBD,2017-06-13T20:25:14.000Z
All Eyez on Me - Movie Review,movie,https://www.youtube.com/watch?v=Q7tpJIfuFI8,TBD,2017-06-09T21:52:49.000Z
The Mummy - Movie Review,movie,https://www.youtube.com/watch?v=8mU64EdEJ3Y,TBD,2017-06-07T22:10:35.000Z
Ron Goossens; Low Budget Stuntman - Movie Review,movie,https://www.youtube.com/watch?v=Klf__BkH_QU,TBD,2017-06-01T20:35:16.000Z
Top 10 Best Superhero Movie Themes,movie,https://www.youtube.com/watch?v=g1mUjQgXYso,TBD,2017-05-29T15:00:14.000Z
Without Name - Movie Review,movie,https://www.youtube.com/watch?v=DIdDCjDuOWw,TBD,2017-05-27T16:42:24.000Z
Baywatch - Movie Review,movie,https://www.youtube.com/watch?v=aROarGr847A,TBD,2017-05-25T00:08:02.000Z
Pirates of the Caribbean: Dead Men Tell No Tales - Movie Review,movie,https://www.youtube.com/watch?v=b9I-b9cfd38,TBD,2017-05-22T12:55:43.000Z
The Bar - Movie Review,movie,https://www.youtube.com/watch?v=b7JKsfbx5QY,TBD,2017-05-18T14:10:44.000Z
Baahubali 2: The Conclusion - Movie Review,movie,https://www.youtube.com/watch?v=r1mIK0l08O4,TBD,2017-05-15T16:24:53.000Z
Alien: Covenant - Movie Review,movie,https://www.youtube.com/watch?v=jbUDcQ4niRg,TBD,2017-05-13T16:31:20.000Z
King Arthur: Legend of the Sword - Movie Review,movie,https://www.youtube.com/watch?v=y668ymuUA3k,TBD,2017-05-09T22:09:18.000Z
5 Classic Films for Beginners - reTake,movie,https://www.youtube.com/watch?v=sau4MWdqKdg,TBD,2017-05-04T19:18:32.000Z
Nova Seed - Movie Review,movie,https://www.youtube.com/watch?v=bnvdjuN2-NY,TBD,2017-05-02T20:16:14.000Z
Fail-Safe (1964) - reTake,movie,https://www.youtube.com/watch?v=cYu0DwjYW5A,TBD,2017-04-28T18:59:20.000Z
Guardians of the Galaxy Vol. 2 - Movie Review,movie,https://www.youtube.com/watch?v=b_sPBwDvu60,TBD,2017-04-24T06:49:54.000Z
Stefan Zweig: Farewell to Europe - Movie Review,movie,https://www.youtube.com/watch?v=mqJZperQy0A,TBD,2017-04-21T15:03:25.000Z
The Fate of the Furious - Movie Review,movie,https://www.youtube.com/watch?v=knCgCOx_kog,TBD,2017-04-11T20:20:20.000Z
Buddy Loves Bollywood - Bahubali: The Beginning (Reaction + Review),movie,https://www.youtube.com/watch?v=PCHYSZUUQbk,TBD,2017-04-10T11:19:24.000Z
Ghost in the Shell - Movie Review,movie,https://www.youtube.com/watch?v=96QesQVF3fw,TBD,2017-03-30T02:30:00.000Z
In This Corner of the World - Movie Review,movie,https://www.youtube.com/watch?v=0CJ7QWw3aOc,TBD,2017-03-22T19:12:38.000Z
Power Rangers - Movie Review,movie,https://www.youtube.com/watch?v=WBxfZUJHU4I,TBD,2017-03-20T15:44:38.000Z
Rammstein: Paris - Concert Movie Review,movie,https://www.youtube.com/watch?v=WsMT-jXdZR4,TBD,2017-03-19T12:18:23.000Z
The Boss Baby - Movie Review,movie,https://www.youtube.com/watch?v=BJZHLJ-1wBQ,TBD,2017-03-14T21:48:43.000Z
Beauty and the Beast - Movie Review,movie,https://www.youtube.com/watch?v=Y7szSlgduxo,TBD,2017-03-12T12:43:39.000Z
Kong: Skull Island - Movie Review,movie,https://www.youtube.com/watch?v=1HhwrjxHclY,TBD,2017-03-08T22:27:38.000Z
Logan - Movie Review,movie,https://www.youtube.com/watch?v=KT4Y6NECyl0,TBD,2017-02-21T20:14:26.000Z
John Wick Parody Song - Gun Fu Fighting,movie,https://www.youtube.com/watch?v=tDpD2HDJnrQ,TBD,2017-02-19T19:43:09.000Z
Q&A - My Favorite Directors; Composers; Movies; Moments and more...,movie,https://www.youtube.com/watch?v=eC06ZbP2Rqo,TBD,2017-02-14T10:47:13.000Z
A Cure for Wellness - Movie Review,movie,https://www.youtube.com/watch?v=K4c9aav7FT0,TBD,2017-02-09T22:17:13.000Z
John Wick: Chapter 2 - Movie Review,movie,https://www.youtube.com/watch?v=tVyMKnWz6KI,TBD,2017-02-07T22:02:34.000Z
The LEGO Batman Movie - Movie Review,movie,https://www.youtube.com/watch?v=C8igbomp_vA,TBD,2017-02-04T20:36:15.000Z
T2 Trainspotting - Movie Review,movie,https://www.youtube.com/watch?v=vLdBQbsAPsM,TBD,2017-01-31T22:29:19.000Z
Top 10 Best Soundtracks of 2016,movie,https://www.youtube.com/watch?v=aKrKlwFU46c,TBD,2017-01-29T20:14:32.000Z
The Space Between Us - Movie Review,movie,https://www.youtube.com/watch?v=8StDIbcMl3w,TBD,2017-01-28T16:02:14.000Z
The Great Wall - Movie Review,movie,https://www.youtube.com/watch?v=6yV_NiN7xxs,TBD,2017-01-26T22:25:01.000Z
xXx: Return of Xander Cage - Movie Review,movie,https://www.youtube.com/watch?v=s-z9n7-R2DU,TBD,2017-01-22T00:03:03.000Z
Rings - Movie Review,movie,https://www.youtube.com/watch?v=OJIWEMVdPx8,TBD,2017-01-10T19:32:11.000Z
Top 10 Best Animated Movies of 2016,movie,https://www.youtube.com/watch?v=Sn53KM_zcM4,TBD,2017-01-08T20:06:13.000Z
Resident Evil: The Final Chapter - Movie Review,movie,https://www.youtube.com/watch?v=q2ASEFVLHSI,TBD,2017-01-07T19:51:29.000Z
Monster Trucks - Movie Review,movie,https://www.youtube.com/watch?v=RPaeTgZ8WaY,TBD,2017-01-05T20:54:24.000Z
Top 10 Best Movies of 2016,movie,https://www.youtube.com/watch?v=BMxQevxxnDE,TBD,2017-01-01T23:06:41.000Z
1000 Subscribers - Channel Update,movie,https://www.youtube.com/watch?v=vsaRrmTLObg,TBD,2016-12-30T18:27:36.000Z
The Salesman - Movie Review,movie,https://www.youtube.com/watch?v=EFE9jFgo1jw,TBD,2016-12-25T20:00:01.000Z
Better Watch Out - Movie Review,movie,https://www.youtube.com/watch?v=BQqIEgHvMtk,TBD,2016-12-22T20:00:00.000Z
Assassin's Creed - Movie Review,movie,https://www.youtube.com/watch?v=4zDDXuH757E,TBD,2016-12-19T21:07:51.000Z
Passengers - Movie Review,movie,https://www.youtube.com/watch?v=Jq7UoV5zPjs,TBD,2016-12-17T22:10:13.000Z
Rogue One: A Star Wars Story - Movie Review,movie,https://www.youtube.com/watch?v=a6Aniv1ijao,TBD,2016-12-13T22:53:56.000Z
Office Christmas Party - Movie Review,movie,https://www.youtube.com/watch?v=OjF0EBVTJwM,TBD,2016-12-06T22:38:42.000Z
Top 10 Best STAR WARS Tracks,movie,https://www.youtube.com/watch?v=A9JNX8fYRAs,TBD,2016-12-04T17:22:33.000Z
Allied - Movie Review,movie,https://www.youtube.com/watch?v=Z92VuN069gs,TBD,2016-11-29T14:04:06.000Z
Jackie - Movie Review,movie,https://www.youtube.com/watch?v=ygfcGGHhJbs,TBD,2016-11-27T10:39:38.000Z
Fantastic Beasts and Where to Find Them - Movie Review,movie,https://www.youtube.com/watch?v=VpDkMBtmTlE,TBD,2016-11-22T22:57:08.000Z
Nocturnal Animals - Movie Review,movie,https://www.youtube.com/watch?v=nebkO5-NsDQ,TBD,2016-11-18T23:49:29.000Z
I; Daniel Blake - Movie Review,movie,https://www.youtube.com/watch?v=KkiiAYPlxts,TBD,2016-11-14T19:14:14.000Z
Bad Santa 2 - Movie Review,movie,https://www.youtube.com/watch?v=eYfgeq4Wh_U,TBD,2016-11-11T21:54:35.000Z
Personal Shopper - Movie Review,movie,https://www.youtube.com/watch?v=FwLEmHS5amo,TBD,2016-11-09T19:17:13.000Z
Sing - Movie Review,movie,https://www.youtube.com/watch?v=kdP4gC17pTw,TBD,2016-11-07T19:37:37.000Z
La La Land - Movie Review,movie,https://www.youtube.com/watch?v=_02itiBIQJk,TBD,2016-11-05T19:40:11.000Z
Paterson - Movie Review,movie,https://www.youtube.com/watch?v=0ytaiCSNlWM,TBD,2016-11-03T18:44:50.000Z
A Quiet Passion - Movie Review,movie,https://www.youtube.com/watch?v=AQrws8oJyLg,TBD,2016-11-01T17:32:02.000Z
My Life as a Zucchini - Movie Review,movie,https://www.youtube.com/watch?v=oc1QProLTKM,TBD,2016-10-30T13:16:38.000Z
Manchester by the Sea - Movie Review,movie,https://www.youtube.com/watch?v=tl39rc-_8H4,TBD,2016-10-26T15:28:36.000Z
Arrival - Movie Review,movie,https://www.youtube.com/watch?v=PMWetd1AHWw,TBD,2016-10-24T17:15:44.000Z
Doctor Strange - Movie Review,movie,https://www.youtube.com/watch?v=8eYe18xc8OY,TBD,2016-10-23T06:56:41.000Z
Headshot - Movie Review,movie,https://www.youtube.com/watch?v=AmV_AkT7wLk,TBD,2016-10-22T17:12:59.000Z
The Odyssey - Movie Review,movie,https://www.youtube.com/watch?v=jZgi0ZbhneY,TBD,2016-10-21T15:08:21.000Z
Jack Reacher: Never Go Back - Movie Review,movie,https://www.youtube.com/watch?v=aZZB97_2cTA,TBD,2016-10-19T13:00:00.000Z
The Red Turtle - Movie Review,movie,https://www.youtube.com/watch?v=HzMfZpFQ_Vc,TBD,2016-10-17T16:50:59.000Z
Long Way North - Movie Review,movie,https://www.youtube.com/watch?v=bHR5Ye1WS4A,TBD,2016-10-16T12:56:30.000Z
The Master Cleanse - Movie Review,movie,https://www.youtube.com/watch?v=R_xnYok0Afg,TBD,2016-10-13T18:07:31.000Z
In a Valley of Violence - Movie Review,movie,https://www.youtube.com/watch?v=zEldg9mwMkM,TBD,2016-10-10T17:17:37.000Z
Inferno - Movie Review,movie,https://www.youtube.com/watch?v=2ZskkVHzdmQ,TBD,2016-10-08T21:55:19.000Z
Trolls - Movie Review,movie,https://www.youtube.com/watch?v=-K7X4mYkx1U,TBD,2016-10-08T14:51:50.000Z
The Greasy Strangler - Movie Review,movie,https://www.youtube.com/watch?v=KNXYKySgAGQ,TBD,2016-10-07T19:30:54.000Z
The Girl on the Train - Movie Review,movie,https://www.youtube.com/watch?v=r4itqf-OVig,TBD,2016-10-06T20:58:50.000Z
Train to Busan - Movie Review,movie,https://www.youtube.com/watch?v=7Fyp3rf9Bvg,TBD,2016-10-02T08:39:48.000Z
Seoul Station - Movie Review,movie,https://www.youtube.com/watch?v=qEq_KqVdMmg,TBD,2016-10-01T18:03:57.000Z
The Handmaiden - Movie Review,movie,https://www.youtube.com/watch?v=bTBbtTdDD4s,TBD,2016-09-28T20:49:46.000Z
Miss Peregrine's Home for Peculiar Children - Movie Review,movie,https://www.youtube.com/watch?v=zzGTXYAllfE,TBD,2016-09-25T21:57:06.000Z
Miss Hokusai - Movie Review,movie,https://www.youtube.com/watch?v=KVwbiZFBKk0,TBD,2016-09-23T21:38:03.000Z
Swiss Army Man - Movie Review,movie,https://www.youtube.com/watch?v=X5AeRLeXhak,TBD,2016-09-17T21:18:21.000Z
Suicide Squad - Movie Review,movie,https://www.youtube.com/watch?v=rCjK0Cb30lQ,TBD,2016-09-15T16:25:20.000Z
Finding Dory - Movie Review,movie,https://www.youtube.com/watch?v=eGVErc__kAk,TBD,2016-09-13T15:12:49.000Z
Pete's Dragon - Movie Review,movie,https://www.youtube.com/watch?v=2_EXG5_KQLs,TBD,2016-09-11T11:02:24.000Z
Blair Witch - Movie Review,movie,https://www.youtube.com/watch?v=8b9zgYb4ddE,TBD,2016-09-09T20:28:20.000Z
The Magnificent Seven - Movie Review,movie,https://www.youtube.com/watch?v=0TM6wO0JDJ0,TBD,2016-09-08T18:13:19.000Z
Ghostbusters - Movie Review,movie,https://www.youtube.com/watch?v=aFNm9naZF8E,TBD,2016-09-06T21:47:40.000Z
Teenage Mutant Ninja Turtles: Out of the Shadows - Movie Review,movie,https://www.youtube.com/watch?v=yiosm9n819o,TBD,2016-09-04T10:55:15.000Z
Star Trek Beyond - Movie Review,movie,https://www.youtube.com/watch?v=TbOUpfLGWPc,TBD,2016-07-20T23:56:38.000Z
Fire at Sea - Movie Review,movie,https://www.youtube.com/watch?v=_wh8tUYtO9E,TBD,2016-07-19T15:07:22.000Z
Super Mario Maker Part 25 - Puzzling Pictures,movie,https://www.youtube.com/watch?v=5RoJmVmhOzE,TBD,2016-07-18T11:46:09.000Z
Super Mario Maker Part 24 - Mission: Impossible,movie,https://www.youtube.com/watch?v=y_ft0m1NWPE,TBD,2016-07-11T18:24:48.000Z
Inside - Game Review,movie,https://www.youtube.com/watch?v=sU0zZPBRQsY,TBD,2016-07-10T20:41:25.000Z
LEGO Star Wars - The Force Awakens Part 6 - Epic TIE Battle,movie,https://www.youtube.com/watch?v=uB_WkNn9Lrk,TBD,2016-07-08T12:03:45.000Z
LEGO Star Wars - The Force Awakens Part 5 - Escape from the Finalizer,movie,https://www.youtube.com/watch?v=DtsN9NliLYk,TBD,2016-07-06T20:32:35.000Z
Super Mario Maker Part 23 - Last Minute Rescue,movie,https://www.youtube.com/watch?v=L_en9-yax6k,TBD,2016-07-04T14:49:48.000Z
Funny LEGO Star Wars Glitch,movie,https://www.youtube.com/watch?v=9UA2jm3BO_U,TBD,2016-07-03T21:55:26.000Z
LEGO Star Wars - The Force Awakens Part 4 - Village of Fire,movie,https://www.youtube.com/watch?v=GtcpSDsZDVo,TBD,2016-07-03T15:15:35.000Z
My Complete DVD Collection,movie,https://www.youtube.com/watch?v=SwwowduMyMc,TBD,2016-07-02T17:46:42.000Z
LEGO Star Wars - The Force Awakens Part 3 - Assault on Jakku,movie,https://www.youtube.com/watch?v=Ooj7pVQun-4,TBD,2016-07-01T16:27:15.000Z
LEGO Star Wars - The Force Awakens Part 2 - Emperor Palpatine,movie,https://www.youtube.com/watch?v=iKZ83dkIv4U,TBD,2016-06-30T05:45:54.000Z
LEGO Star Wars - The Force Awakens Part 1 - The Battle of Endor,movie,https://www.youtube.com/watch?v=DeXAfoPGT78,TBD,2016-06-29T08:18:52.000Z
Super Mario Maker Part 22 - A New Hope,movie,https://www.youtube.com/watch?v=aCvZmKqNcpA,TBD,2016-06-27T06:25:55.000Z
The BFG - Movie Review,movie,https://www.youtube.com/watch?v=M-WLDqNxJuM,TBD,2016-06-25T10:36:33.000Z
Yoshi's Woolly World Part 46 - Problem Child [The End],movie,https://www.youtube.com/watch?v=ADkKEbuHHwA,TBD,2016-06-24T17:31:48.000Z
Independence Day: Resurgence - Movie Review,movie,https://www.youtube.com/watch?v=VOAYZE73QPw,TBD,2016-06-22T20:32:12.000Z
Super Mario Maker Part 21 - Hellfire,movie,https://www.youtube.com/watch?v=QOeVAFx05Ds,TBD,2016-06-20T19:39:35.000Z
Wiener-Dog - Movie Review,movie,https://www.youtube.com/watch?v=aHQDcOnzO0E,TBD,2016-06-19T15:50:17.000Z
Central Intelligence - Movie Review,movie,https://www.youtube.com/watch?v=p2jNsNOHhw8,TBD,2016-06-17T22:53:17.000Z
Channel Update - 500 Subscribers,movie,https://www.youtube.com/watch?v=K_Emw04S8nk,TBD,2016-06-15T18:39:41.000Z
Yoshi's Woolly World Part 45 - Horrible Bosses,movie,https://www.youtube.com/watch?v=ho5jXKroQ28,TBD,2016-06-14T19:20:02.000Z
Super Mario Maker Part 20 - Shaun the Sheep,movie,https://www.youtube.com/watch?v=MA7iIzm6fpk,TBD,2016-06-13T18:44:41.000Z
Yoshi's Woolly World Part 44 - Boss Tent,movie,https://www.youtube.com/watch?v=ajJk-LYTb4o,TBD,2016-06-10T16:33:52.000Z
Toni Erdmann - Movie Review,movie,https://www.youtube.com/watch?v=3dLV7KjOr2g,TBD,2016-06-09T20:13:14.000Z
Super Mario Maker Part 19 - Skip It!,movie,https://www.youtube.com/watch?v=zmGYmB7Dyx8,TBD,2016-06-06T17:56:50.000Z
A Conspiracy of Faith - Movie Review,movie,https://www.youtube.com/watch?v=6lpzvypOlzE,TBD,2016-05-31T21:21:50.000Z
Super Mario Maker Part 18 - Challenge Accepted,movie,https://www.youtube.com/watch?v=TsdmwaD22LU,TBD,2016-05-30T19:53:33.000Z
You Carry Me - Movie Review,movie,https://www.youtube.com/watch?v=vrXaFyHQVCY,TBD,2016-05-28T16:59:56.000Z
Warcraft - Movie Review,movie,https://www.youtube.com/watch?v=5CbaSur4J5w,TBD,2016-05-26T23:21:15.000Z
The Queen of Silence - Movie Review,movie,https://www.youtube.com/watch?v=cUIvyxE_k3I,TBD,2016-05-25T19:16:20.000Z
Hyper Light Drifter Part 17 - What Up Dog? [The End],movie,https://www.youtube.com/watch?v=0CoOMYUMSLs,TBD,2016-05-24T21:15:47.000Z
Super Mario Maker Part 17 - Let's Bowl,movie,https://www.youtube.com/watch?v=ySj7FkWkXwk,TBD,2016-05-23T18:18:14.000Z
Hyper Light Drifter Part 16 - Robin Hood Boss Fight,movie,https://www.youtube.com/watch?v=Y7Ig9OvCYrw,TBD,2016-05-21T14:11:08.000Z
The Mind's Eye - Movie Review,movie,https://www.youtube.com/watch?v=14sHbLwr4rY,TBD,2016-05-20T15:15:59.000Z
Seraph Part 6 - Difficulty Level Rising,movie,https://www.youtube.com/watch?v=R60FbsF67lc,TBD,2016-05-19T16:07:00.000Z
The Blackcoat's Daughter (February) - Movie Review,movie,https://www.youtube.com/watch?v=Xf9CDEDdtzI,TBD,2016-05-18T19:07:56.000Z
Hyper Light Drifter Part 15 - Deep Down,movie,https://www.youtube.com/watch?v=64Lf-_94Sf8,TBD,2016-05-17T21:35:30.000Z
Super Mario Maker Part 16 - Bowser's Treacherous Trek,movie,https://www.youtube.com/watch?v=ZOPQuBn_x_w,TBD,2016-05-16T18:48:14.000Z
April and the Extraordinary World - Movie Review,movie,https://www.youtube.com/watch?v=xE-gEB7lPQQ,TBD,2016-05-15T20:51:16.000Z
The Nice Guys - Movie Review,movie,https://www.youtube.com/watch?v=JFXxuhHn4QE,TBD,2016-05-14T21:22:06.000Z
Seraph Part 5 - Her Name Was Talia,movie,https://www.youtube.com/watch?v=mp2HynILBAA,TBD,2016-05-13T21:47:59.000Z
X-Men: Apocalypse - Movie Review,movie,https://www.youtube.com/watch?v=DVfjiZyqwDg,TBD,2016-05-12T06:39:04.000Z
Alice Through the Looking Glass - Movie Review,movie,https://www.youtube.com/watch?v=pa80zYVfj98,TBD,2016-05-11T20:49:00.000Z
Seraph Part 4 - Corangelus Imprisonment,movie,https://www.youtube.com/watch?v=lNbXJoiM2fI,TBD,2016-05-10T18:01:25.000Z
Super Mario Maker Part 15 - Baby Metal,movie,https://www.youtube.com/watch?v=9nFKAgp2azY,TBD,2016-05-09T17:30:08.000Z
Hyper Light Drifter Part 14 - Third Boss Fight in a Row,movie,https://www.youtube.com/watch?v=Y0RW0lQLZhI,TBD,2016-05-08T15:37:16.000Z
Seraph Part 3 - Death and Destruction,movie,https://www.youtube.com/watch?v=ux2NmBY5U_0,TBD,2016-05-07T15:57:54.000Z
Angry Birds - Movie Review,movie,https://www.youtube.com/watch?v=gG2I_9hZNJk,TBD,2016-05-06T22:14:56.000Z
Hyper Light Drifter Part 13 - Surprise Boss in the South,movie,https://www.youtube.com/watch?v=bDTwIcFD0gs,TBD,2016-05-05T23:32:44.000Z
Seraph Part 2 - Acrobatic Asskicking,movie,https://www.youtube.com/watch?v=VCwh39RgoDw,TBD,2016-05-04T19:24:35.000Z
Neighbors 2 - Movie Review,movie,https://www.youtube.com/watch?v=cOb3G7DLSyI,TBD,2016-05-03T21:57:01.000Z
I Am a Hero - Movie Review,movie,https://www.youtube.com/watch?v=ternloGnZAA,TBD,2016-05-02T18:28:04.000Z
Demon - Movie Review,movie,https://www.youtube.com/watch?v=E2MPR8zLGtA,TBD,2016-05-01T14:02:56.000Z
Seraph Part 1 - Shoot First; Aim Later,movie,https://www.youtube.com/watch?v=IZtfKj0PeDs,TBD,2016-04-30T12:52:24.000Z
Hyper Light Drifter Part 12 - Birdman Boss Fight,movie,https://www.youtube.com/watch?v=TM5taOPbFhU,TBD,2016-04-28T19:22:26.000Z
The Man Who Knew Infinity - Movie Review,movie,https://www.youtube.com/watch?v=gYZxAGVjRGw,TBD,2016-04-25T15:24:45.000Z
Hyper Light Drifter Part 11 - Suicidal Bird Magicians,movie,https://www.youtube.com/watch?v=XP1Gehd_CiY,TBD,2016-04-24T14:19:31.000Z
Hyper Light Drifter Part 10 - Mountain Massacre,movie,https://www.youtube.com/watch?v=1GHRuIaM-7U,TBD,2016-04-22T13:46:18.000Z
Hyper Light Drifter Part 9 - Fast; Faster; Forest Fighter,movie,https://www.youtube.com/watch?v=BRdcnhRi1wU,TBD,2016-04-20T18:25:17.000Z
Captain America: Civil War - Movie Review,movie,https://www.youtube.com/watch?v=AdwT4uQ3PS8,TBD,2016-04-18T19:28:49.000Z
Hyper Light Drifter Part 8 - Shotgun Shogun,movie,https://www.youtube.com/watch?v=T0XS8qWdH84,TBD,2016-04-17T19:27:47.000Z
Super Mario Maker Part 14 - Bowser's Chambers of Doom,movie,https://www.youtube.com/watch?v=vVzT2bYgrp8,TBD,2016-04-16T21:13:41.000Z
Wedding Doll - Movie Review,movie,https://www.youtube.com/watch?v=iJIobbiZUJw,TBD,2016-04-14T07:32:57.000Z
Hyper Light Drifter Part 7 - Terror Toad,movie,https://www.youtube.com/watch?v=S7ZBeX9yB1w,TBD,2016-04-13T18:39:20.000Z
Yoshi's Woolly World Part 43 - Wonderful World of Wool,movie,https://www.youtube.com/watch?v=aGD-38U-sXE,TBD,2016-04-12T14:36:03.000Z
Hyper Light Drifter Part 6 - Double Dash,movie,https://www.youtube.com/watch?v=eJDhN1jcMJI,TBD,2016-04-10T15:27:31.000Z
Hyper Light Drifter Part 5 - The Crystal Forest,movie,https://www.youtube.com/watch?v=5Ns87DJT-yk,TBD,2016-04-08T21:37:38.000Z
Hyper Light Drifter Part 4 - Lost,movie,https://www.youtube.com/watch?v=58UGhroRSIw,TBD,2016-04-07T19:45:57.000Z
Complete Blu-ray Collection 2016,movie,https://www.youtube.com/watch?v=1RgFAH2S784,TBD,2016-04-06T19:44:45.000Z
300 Subscribers - Channel Update,movie,https://www.youtube.com/watch?v=XlDxHreMKaY,TBD,2016-04-05T22:08:31.000Z
Hyper Light Drifter Part 3 - Devilish Difficulty,movie,https://www.youtube.com/watch?v=Y_vBzP07NTs,TBD,2016-04-04T18:22:43.000Z
The Huntsman: Winter's War - Movie Review,movie,https://www.youtube.com/watch?v=x3RnNAvo1eQ,TBD,2016-04-04T08:57:59.000Z
The Jungle Book - Movie Review,movie,https://www.youtube.com/watch?v=xjbDi6yMj3M,TBD,2016-04-03T15:55:27.000Z
Hyper Light Drifter Part 2 - Water Temple,movie,https://www.youtube.com/watch?v=PS06f8Wt8hw,TBD,2016-04-02T20:22:11.000Z
Hyper Light Drifter Part 1 - Welcome to Pixel Paradise,movie,https://www.youtube.com/watch?v=KMszIBST1FA,TBD,2016-04-01T17:19:00.000Z
Ratchet & Clank - Movie Review,movie,https://www.youtube.com/watch?v=7o8Wu71Vb5Q,TBD,2016-04-01T14:33:21.000Z
Tale of Tales - Movie Review,movie,https://www.youtube.com/watch?v=eGr5KTEc6Gw,TBD,2016-03-30T18:50:53.000Z
Unravel Part 20 - Gonna Fly Now [The End],movie,https://www.youtube.com/watch?v=vtyURHddDDk,TBD,2016-03-28T14:20:06.000Z
Super Mario Maker Part 13 - Twilight Princess and another Update!,movie,https://www.youtube.com/watch?v=wVm5VrB23m8,TBD,2016-03-26T16:43:04.000Z
Unravel Part 19 - All Good Things (Come To An End),movie,https://www.youtube.com/watch?v=CLfMqHChq3Q,TBD,2016-03-23T19:02:44.000Z
Batman v Superman - Movie Review,movie,https://www.youtube.com/watch?v=x1qX0pAlwbc,TBD,2016-03-23T00:07:04.000Z
My Big Fat Greek Wedding 2 - Movie Review,movie,https://www.youtube.com/watch?v=oHygdtrUQEo,TBD,2016-03-21T22:28:14.000Z
Yoshi's Woolly World Part 42 - Skeleton Goonie's Lava Lair,movie,https://www.youtube.com/watch?v=5KpGsmNhbfg,TBD,2016-03-20T17:52:38.000Z
Hardcore Henry - Movie Review,movie,https://www.youtube.com/watch?v=ayinVC6JpnE,TBD,2016-03-19T16:25:48.000Z
Unravel Part 18 - At the End of the Day,movie,https://www.youtube.com/watch?v=iV6wzqhkXXc,TBD,2016-03-18T20:41:07.000Z
Yoshi's Woolly World Part 41 - Bigmouth Baby Bowser,movie,https://www.youtube.com/watch?v=Bz4_1y4qsvY,TBD,2016-03-16T20:24:46.000Z
Yoshi's Woolly World Part 40 - King Bowser's Castle,movie,https://www.youtube.com/watch?v=P5I8PrNZu5g,TBD,2016-03-15T18:28:06.000Z
Unravel Part 17 - Rust,movie,https://www.youtube.com/watch?v=kK88RRCMqd4,TBD,2016-03-14T20:20:48.000Z
Mia Madre - Movie Review,movie,https://www.youtube.com/watch?v=WeTo8jnJEv0,TBD,2016-03-11T18:26:27.000Z
Captain America: Civil War Trailer 2 Reaction,movie,https://www.youtube.com/watch?v=cRtz0u0ZP2M,TBD,2016-03-10T19:58:14.000Z
Super Mario Maker Part 12 - Pokemon and Bumpers,movie,https://www.youtube.com/watch?v=h0rD1ML3cEE,TBD,2016-03-12T20:40:35.000Z
Super Mario Maker Part 11 - Balls of Hell,movie,https://www.youtube.com/watch?v=YxYTvHI3xOc,TBD,2016-03-07T19:09:05.000Z
Unravel Part 16 - Winter Sun,movie,https://www.youtube.com/watch?v=AiUicq5oSlM,TBD,2016-03-09T17:58:25.000Z
Unravel Part 15 - Family,movie,https://www.youtube.com/watch?v=yz7_EbbLWI4,TBD,2016-03-05T18:21:27.000Z
Unravel Part 14 - The Birds,movie,https://www.youtube.com/watch?v=7liuJ9CPs2I,TBD,2016-03-02T18:47:13.000Z
Super Mario Maker Part 10 - Mario Land Nostalgia,movie,https://www.youtube.com/watch?v=KAhqf7--pZo,TBD,2016-02-28T19:09:07.000Z
Yoshi's Woolly World Part 39 - Kamek's Last Ditch Fly-By,movie,https://www.youtube.com/watch?v=xF-FUl612sU,TBD,2016-02-27T21:01:59.000Z
Unravel Part 13 - Shine a Light,movie,https://www.youtube.com/watch?v=jGvNzJA5jN8,TBD,2016-02-25T19:48:37.000Z
Unravel Part 12 - Cliffhanger,movie,https://www.youtube.com/watch?v=pJSQo4Ga_EE,TBD,2016-02-23T18:36:27.000Z
Unravel Part 11 - Toxic Avenger,movie,https://www.youtube.com/watch?v=xwuxL_kpgY0,TBD,2016-02-21T23:06:52.000Z
Unravel Part 10 - Those Memories,movie,https://www.youtube.com/watch?v=xqeQRqvGKUQ,TBD,2016-02-20T23:30:08.000Z
Unravel Part 9 - Off the Rails,movie,https://www.youtube.com/watch?v=wzdTEARRwlY,TBD,2016-02-18T21:31:33.000Z
Yoshi's Woolly World Part 38 - Fun at the Factory,movie,https://www.youtube.com/watch?v=XrOf2HjcqIM,TBD,2016-02-17T20:57:52.000Z
Unravel Part 8 - Mountain Trek,movie,https://www.youtube.com/watch?v=mqHPFyzk9nQ,TBD,2016-02-15T19:03:45.000Z
Unravel Part 7 - The Rascal,movie,https://www.youtube.com/watch?v=FX13h0YNR9s,TBD,2016-02-14T15:25:33.000Z
London Has Fallen - Movie Review,movie,https://www.youtube.com/watch?v=NzxUr-bKnrI,TBD,2016-02-12T22:30:11.000Z
Zootopia - Movie Review,movie,https://www.youtube.com/watch?v=RMmEewXHv8I,TBD,2016-02-12T16:52:41.000Z
Unravel Part 6 - Berry Mire,movie,https://www.youtube.com/watch?v=BuAWb-7QemQ,TBD,2016-02-12T00:04:10.000Z
Zoolander 2 - Movie Review,movie,https://www.youtube.com/watch?v=9EOcT-zHwSc,TBD,2016-02-11T00:15:52.000Z
Unravel Part 5 - A Walk in the Woods,movie,https://www.youtube.com/watch?v=-0gyLm79Iuc,TBD,2016-02-10T23:56:10.000Z
Yoshi's Woolly World Part 37 - Spooky Stuff,movie,https://www.youtube.com/watch?v=ez5nfF4ZlQg,TBD,2016-02-09T21:38:24.000Z
Unravel Part 4 - Boat Ride,movie,https://www.youtube.com/watch?v=jLr1rVAnzmQ,TBD,2016-02-08T21:02:42.000Z
Deadpool - Movie Review,movie,https://www.youtube.com/watch?v=KvTpnz-wUgk,TBD,2016-02-07T03:21:39.000Z
Unravel Part 3 - Distract the Crab,movie,https://www.youtube.com/watch?v=drRu3bk61kA,TBD,2016-02-06T20:07:26.000Z
Unravel Part 2 - Let's Go Fly a Kite,movie,https://www.youtube.com/watch?v=pwpg_-iUu3g,TBD,2016-02-05T18:43:09.000Z
Unravel Part 1 - Yarny's Big Adventure,movie,https://www.youtube.com/watch?v=Z5KvR14PExs,TBD,2016-02-05T09:37:55.000Z
Yoshi's Woolly World Part 36 - Bullet-Bill Balloon Bazinga!,movie,https://www.youtube.com/watch?v=j8751KgH39o,TBD,2016-02-03T23:36:10.000Z
Yoshi's Woolly World Part 35 - Lava Labyrinth,movie,https://www.youtube.com/watch?v=cw_39CDAsv8,TBD,2016-02-01T22:55:37.000Z
Yoshi's Woolly World Part 34 - Snag-Stitch Mountain,movie,https://www.youtube.com/watch?v=P20dHVYw-vo,TBD,2016-01-30T21:10:02.000Z
Yoshi's Woolly World Part 33 - Kiss of the Spider,movie,https://www.youtube.com/watch?v=Xrb4FiPXd0k,TBD,2016-01-28T19:07:33.000Z
Yoshi's Woolly World Part 32 - Snifberg the Unfeeling's Castle,movie,https://www.youtube.com/watch?v=i4bJ2y7HztU,TBD,2016-01-26T00:14:44.000Z
Volvox Part 4 - Chain Reaction,movie,https://www.youtube.com/watch?v=TeH_0DLi2W4,TBD,2016-01-23T14:47:43.000Z
Son of Saul - Movie Review,movie,https://www.youtube.com/watch?v=7OjQYYomGm0,TBD,2016-01-18T21:43:29.000Z
The Revenant - Movie Review,movie,https://www.youtube.com/watch?v=07snilsyWqU,TBD,2016-01-15T23:21:52.000Z
Yoshi's Woolly World Part 31 - Breath of Fire,movie,https://www.youtube.com/watch?v=HM5fPJ3pZtM,TBD,2016-01-21T17:56:36.000Z
Super Mario Maker Part 9 - Bowser's Cannonball Run,movie,https://www.youtube.com/watch?v=lje4cTWHUzI,TBD,2016-01-13T21:06:34.000Z
Volvox Part 3 - Explosives!,movie,https://www.youtube.com/watch?v=t2n5TEEPqlU,TBD,2016-01-11T17:10:47.000Z
The Little Prince - Movie Review,movie,https://www.youtube.com/watch?v=Ck9f5tXtKhU,TBD,2016-01-08T00:03:24.000Z
Ash vs Evil Dead - Season 1 Review,movie,https://www.youtube.com/watch?v=gneO-rmT1nE,TBD,2016-01-05T20:54:59.000Z
Super Mario Maker Part 8 - Little Toad Can't Jump,movie,https://www.youtube.com/watch?v=NNyLWmQfH9A,TBD,2016-01-03T17:57:26.000Z
Super Mario Maker Part 7 - Mercedes-Benz Jump'n'Drive,movie,https://www.youtube.com/watch?v=28MuDgZseMY,TBD,2016-01-01T20:16:25.000Z
Yoshi's Woolly World Part 30 - Most Magical Music,movie,https://www.youtube.com/watch?v=OAzMWr_CmuQ,TBD,2016-01-09T21:45:29.000Z
Volvox Part 2 - All Eyes on the Pyramid,movie,https://www.youtube.com/watch?v=4KNx85bcsh8,TBD,2015-12-29T00:05:32.000Z
Yoshi's Woolly World Part 29 - White Christmas,movie,https://www.youtube.com/watch?v=iUcaaqG5vqM,TBD,2015-12-24T22:37:20.000Z
Volvox Part 1 - Tricky little Triangles,movie,https://www.youtube.com/watch?v=NZU_j6d_wvM,TBD,2015-12-20T20:14:48.000Z
Hard West Part 7 - Meet the Cannibals,movie,https://www.youtube.com/watch?v=52p4EOGppD8,TBD,2015-12-30T20:38:18.000Z
Yoshi's Woolly World Part 28 - Penguin Party,movie,https://www.youtube.com/watch?v=t5QoBWbqMC8,TBD,2015-12-18T23:21:33.000Z
Star Wars: The Force Awakens - Movie Review,movie,https://www.youtube.com/watch?v=iYENGKwqVU4,TBD,2015-12-16T07:58:58.000Z
Super Mario Maker Part 6 - Epic Star Wars Levels,movie,https://www.youtube.com/watch?v=znYHESqzBqs,TBD,2015-12-15T22:28:21.000Z
Super Mario Maker Part 5 - The 1%,movie,https://www.youtube.com/watch?v=xiNMAnDrolE,TBD,2015-12-14T21:35:11.000Z
Yoshi's Woolly World Part 27 - Magic Carpet Mayhem,movie,https://www.youtube.com/watch?v=QaRTwHGc_hY,TBD,2015-12-18T23:23:44.000Z
Hard West Part 6 - Adventure Time,movie,https://www.youtube.com/watch?v=CeXd0S_fj8o,TBD,2015-12-12T19:12:45.000Z
Super Mario Maker Part 4 - Bowser's Puzzle Dungeon,movie,https://www.youtube.com/watch?v=UkkghssaLEM,TBD,2015-12-10T20:32:02.000Z
Yoshi's Woolly World Part 26 - Freeze the Blargg!,movie,https://www.youtube.com/watch?v=1zAq3QHF2sA,TBD,2015-12-08T20:12:54.000Z
In the Heart of the Sea - Movie Review,movie,https://www.youtube.com/watch?v=uKbFNfwlVOI,TBD,2015-12-05T00:05:37.000Z
Super Mario Maker Part 3 - Mashiko Madness,movie,https://www.youtube.com/watch?v=rTlNzeHVU5M,TBD,2015-12-06T21:09:48.000Z
Krampus - Movie Review,movie,https://www.youtube.com/watch?v=WNTSZRFVYtU,TBD,2015-12-02T22:31:37.000Z
Super Mario Maker Part 2 - Cat Peach Crazyness,movie,https://www.youtube.com/watch?v=N7bkQAUef_g,TBD,2015-12-01T19:53:56.000Z
Super Mario Maker Part 1 - Let's Face It,movie,https://www.youtube.com/watch?v=H7d_rUm0Uw0,TBD,2015-11-28T16:07:08.000Z
Hard West Part 5 - A Date with the Devil,movie,https://www.youtube.com/watch?v=7U663sU_1kE,TBD,2015-11-29T19:24:40.000Z
The Good Dinosaur - Movie Review,movie,https://www.youtube.com/watch?v=azwZFf2dyhk,TBD,2015-11-23T20:57:56.000Z
Hard West Part 4 - Fire at the Farm,movie,https://www.youtube.com/watch?v=s7OQtCGG5vw,TBD,2015-11-25T19:50:08.000Z
Hard West Part 3 - The Ambush,movie,https://www.youtube.com/watch?v=o4Cugnd1dbk,TBD,2015-11-22T20:40:30.000Z
Hard West Part 2 - The Hard Way,movie,https://www.youtube.com/watch?v=oM_IsZMmvdU,TBD,2015-11-21T21:49:32.000Z
Hard West Part 1 - Father and Son,movie,https://www.youtube.com/watch?v=cWGx88Zl45U,TBD,2015-11-19T23:27:27.000Z
Yoshi's Woolly World Part 25 - Winter Wonderland,movie,https://www.youtube.com/watch?v=MBIC6iPXdWU,TBD,2015-11-27T20:14:16.000Z
101 Subscribers Special - Room Tour / Blu-ray Collection,movie,https://www.youtube.com/watch?v=ZiqUku8pfmA,TBD,2015-11-15T19:53:05.000Z
Yoshi's Woolly World Part 24 - Run Yoshi; Run!,movie,https://www.youtube.com/watch?v=Lb7FK3gVT9o,TBD,2015-11-17T19:03:32.000Z
Yoshi's Woolly World Part 23 - Piranha Plant Sewer Style,movie,https://www.youtube.com/watch?v=eCC5YGHwQZ8,TBD,2015-11-13T21:37:59.000Z
Yoshi's Woolly World Part 22 - Spinning Circle of Death,movie,https://www.youtube.com/watch?v=-e9hSr6bcV4,TBD,2015-11-11T17:41:24.000Z
The Hunger Games: Mockingjay - Part 2 - Movie Review,movie,https://www.youtube.com/watch?v=IzhLBTgIMqo,TBD,2015-11-07T22:24:23.000Z
The Lobster - Movie Review,movie,https://www.youtube.com/watch?v=cFlDpRV9VrM,TBD,2015-11-06T21:12:37.000Z
Yoshi's Woolly World Part 21 - Curtain Coasters and Ghost Mansions,movie,https://www.youtube.com/watch?v=a2ZNlbHtv5s,TBD,2015-11-09T17:22:06.000Z
Spectre - Movie Review,movie,https://www.youtube.com/watch?v=LGSHo54Fkpk,TBD,2015-11-01T21:23:14.000Z
Spotlight - Movie Review,movie,https://www.youtube.com/watch?v=BfFnAlVtIWQ,TBD,2015-10-27T08:19:53.000Z
Carol - Movie Review,movie,https://www.youtube.com/watch?v=TaGY1p_Tyjk,TBD,2015-10-26T12:23:05.000Z
Yoshi's Woolly World Part 20 - Nervous Breakdown in Knot Wing's Water Fort,movie,https://www.youtube.com/watch?v=30f1pIbyRyk,TBD,2015-11-04T19:49:31.000Z
Yoshi's Woolly World Part 19 - Eaten Alive,movie,https://www.youtube.com/watch?v=kqzU1CHeNL0,TBD,2015-10-30T16:53:19.000Z
The Walk - Movie Review,movie,https://www.youtube.com/watch?v=TGycE8B6hwg,TBD,2015-10-19T21:12:42.000Z
Yoshi's Woolly World Part 18 - Monkey Business,movie,https://www.youtube.com/watch?v=MoK9mCukrIo,TBD,2015-10-24T15:12:26.000Z
Crimson Peak - Movie Review,movie,https://www.youtube.com/watch?v=1yt6CFauGAM,TBD,2015-10-16T19:08:43.000Z
Yoshi's Woolly World Part 17 - The Bullet Farmer,movie,https://www.youtube.com/watch?v=OYLmlhqyB70,TBD,2015-10-22T15:34:26.000Z
Yoshi's Woolly World Part 16 - Poor Little Chick,movie,https://www.youtube.com/watch?v=5lZKwj2fctQ,TBD,2015-10-18T18:21:44.000Z
Yoshi's Woolly World Part 15 - Fluffin' Puffin Super Cute,movie,https://www.youtube.com/watch?v=oS6lJSUiCHs,TBD,2015-10-15T15:32:12.000Z
Yoshi's Woolly World Part 14 - Big Montgomery's Bubble Fort,movie,https://www.youtube.com/watch?v=3yshWDXLWAg,TBD,2015-10-13T15:20:45.000Z
Yoshi's Woolly World Part 13 - Lurking Lakitus,movie,https://www.youtube.com/watch?v=rEPWEVESQiQ,TBD,2015-10-11T18:32:39.000Z
Yoshi's Woolly World Part 12 - The Wonders of World 3,movie,https://www.youtube.com/watch?v=69OVLHD9aHI,TBD,2015-10-09T15:23:29.000Z
Yoshi's Woolly World Part 11 - Crazy Little Monty Mole,movie,https://www.youtube.com/watch?v=eNUHr-yDOJs,TBD,2015-10-07T14:28:28.000Z
Yoshi's Woolly World Part 10 - Everybody Loves Hot Dogs,movie,https://www.youtube.com/watch?v=urB9Ym5oyM0,TBD,2015-10-05T17:14:58.000Z
Pan - Movie Review,movie,https://www.youtube.com/watch?v=Mc_QNJLZArI,TBD,2015-10-01T19:28:38.000Z
LEGO Jurassic World Part 30 - There's Always a Bigger Fish [The End],movie,https://www.youtube.com/watch?v=YyUQ4met2i4,TBD,2015-09-26T22:22:32.000Z
Regression - Movie Review,movie,https://www.youtube.com/watch?v=Z1iurA2fbVg,TBD,2015-09-22T19:13:50.000Z
LEGO Jurassic World Part 29 - We Need more Teeth!,movie,https://www.youtube.com/watch?v=AEXkuYYEsVM,TBD,2015-09-24T16:46:38.000Z
LEGO Jurassic World Part 28 - The Horror!,movie,https://www.youtube.com/watch?v=x2_mRwS3a_w,TBD,2015-09-19T15:23:16.000Z
The Martian - Movie Review,movie,https://www.youtube.com/watch?v=GU67P-yTaBM,TBD,2015-09-16T20:09:40.000Z
The Program - Movie Review,movie,https://www.youtube.com/watch?v=GZ0FFCYhPtU,TBD,2015-09-13T13:36:55.000Z
Super Mario Maker - Unboxing,movie,https://www.youtube.com/watch?v=3wf72065a10,TBD,2015-09-11T12:59:06.000Z
Show Me a Hero - Review,movie,https://www.youtube.com/watch?v=rxz0j4kkfn4,TBD,2015-09-07T21:42:10.000Z
Everest - Movie Review,movie,https://www.youtube.com/watch?v=CUCv6poEX5U,TBD,2015-09-03T22:56:19.000Z
Sicario - Movie Review,movie,https://www.youtube.com/watch?v=2NOGhY6ARP0,TBD,2015-09-01T18:03:43.000Z
Yoshi's Woolly World Part 9 - Problems in the Pyramid,movie,https://www.youtube.com/watch?v=PDiQrw-D7SE,TBD,2015-08-30T17:32:30.000Z
Yoshi's Woolly World Part 8 - Red-Hot Rock 'n' Roll,movie,https://www.youtube.com/watch?v=Z6B4Xnf3VDA,TBD,2015-08-26T17:46:45.000Z
Yoshi's Woolly World Part 7 - Knot-Wing Gets Unknitted,movie,https://www.youtube.com/watch?v=GYl8dDmRoLA,TBD,2015-08-23T14:45:21.000Z
LEGO Jurassic World Part 27 - This Is Madness!,movie,https://www.youtube.com/watch?v=DSK659ye4MM,TBD,2015-08-25T18:01:08.000Z
LEGO Jurassic World Part 26 - Ruins of the Old Park,movie,https://www.youtube.com/watch?v=wnaVxBcFui8,TBD,2015-08-22T15:45:37.000Z
Knight of Cups - Movie Review,movie,https://www.youtube.com/watch?v=0pnYcBw5LJM,TBD,2015-08-18T16:58:12.000Z
True Detective - Season 2 Review,movie,https://www.youtube.com/watch?v=R804BI0z5Ck,TBD,2015-08-17T15:31:15.000Z
Straight Outta Compton - Movie Review,movie,https://www.youtube.com/watch?v=6NfNbhAyAAk,TBD,2015-08-15T22:06:24.000Z
LEGO Jurassic World Part 25 - Pet Dinosaur,movie,https://www.youtube.com/watch?v=QZeEwXuIqQg,TBD,2015-08-20T17:08:50.000Z
LEGO Jurassic World Part 24 - They See Me Rollin,movie,https://www.youtube.com/watch?v=eLHhSMWJANI,TBD,2015-08-13T16:30:01.000Z
The Man from U.N.C.L.E. - Movie Review,movie,https://www.youtube.com/watch?v=egafdBYLtKA,TBD,2015-08-07T18:17:25.000Z
LEGO Jurassic World Part 23 - Wild Piggy Hunt,movie,https://www.youtube.com/watch?v=bo0ReVOxEH4,TBD,2015-08-10T16:28:57.000Z
LEGO Jurassic World Part 22 - Welcome to Jurassic World,movie,https://www.youtube.com/watch?v=tcvb4yk5YDU,TBD,2015-08-06T15:54:18.000Z
Fantastic Four - Movie Review,movie,https://www.youtube.com/watch?v=A3E4bH_vlBU,TBD,2015-08-04T21:59:03.000Z
LEGO Jurassic World Part 21 - Jurassic Park III Finale,movie,https://www.youtube.com/watch?v=4fCH_r7Jfiw,TBD,2015-08-02T15:17:17.000Z
LEGO Jurassic World Part 20 - True Survivor,movie,https://www.youtube.com/watch?v=Dd0uxjGwVwg,TBD,2015-08-01T14:58:30.000Z
Feist Part 4 - Playing with Fire [The End],movie,https://www.youtube.com/watch?v=Hvbv_kBFzwU,TBD,2015-07-30T15:56:05.000Z
Feist Part 3 - Spiders Everywhere!,movie,https://www.youtube.com/watch?v=UwOL2i56onk,TBD,2015-07-28T16:40:44.000Z
Feist Part 2 - Live. Die. Repeat.,movie,https://www.youtube.com/watch?v=s5BJH_TFf44,TBD,2015-07-27T16:14:46.000Z
Feist Part 1 - After a Long Night,movie,https://www.youtube.com/watch?v=LAs1cfvJ3k0,TBD,2015-07-25T15:47:44.000Z
Mission: Impossible - Rogue Nation - Movie Review,movie,https://www.youtube.com/watch?v=UjwYs4n94nc,TBD,2015-07-24T22:35:09.000Z
LEGO Jurassic World Part 19 - Dino Crisis,movie,https://www.youtube.com/watch?v=XljkDT_8P4g,TBD,2015-07-26T17:07:39.000Z
LEGO Jurassic World Part 18 - Epic Dino Fight: T-Rex vs. Spinosaurus,movie,https://www.youtube.com/watch?v=ZiO7w1-B6H4,TBD,2015-07-18T10:10:49.000Z
Yoshi's Woolly World Part 6 - Of Mice and Chomps,movie,https://www.youtube.com/watch?v=PVSSel5mXgI,TBD,2015-07-22T15:32:47.000Z
Yoshi's Woolly World Part 5 - First Fail,movie,https://www.youtube.com/watch?v=EYe1FI1Nl8Y,TBD,2015-07-19T21:11:01.000Z
Yoshi's Woolly World Part 4 - Burtman,movie,https://www.youtube.com/watch?v=LT9omkBW698,TBD,2015-07-16T15:56:53.000Z
Yoshi's Woolly World Part 3 - Giant Moo-Moo Yoshi,movie,https://www.youtube.com/watch?v=dhDh6aNirnk,TBD,2015-07-14T16:22:23.000Z
Yoshi's Woolly World Part 2 - It's so fluffy!,movie,https://www.youtube.com/watch?v=68COKUe5Tm4,TBD,2015-07-12T13:05:32.000Z
Yoshi's Woolly World Part 1 - Yarn Yoshi Takes Shape!,movie,https://www.youtube.com/watch?v=oZAEM6FGPJc,TBD,2015-07-11T13:20:13.000Z
LEGO Jurassic World Part 17 - Running from Dinosaurs... again!,movie,https://www.youtube.com/watch?v=ia97Uqt4yd0,TBD,2015-07-09T14:57:26.000Z
LEGO Jurassic World Part 16 - The Lost World Finale in San Diego,movie,https://www.youtube.com/watch?v=pxeEcJXr1tk,TBD,2015-07-07T16:14:11.000Z
LEGO Jurassic World Part 15 - Raptors on Rooftops,movie,https://www.youtube.com/watch?v=1e3Ro48h_vs,TBD,2015-07-05T09:33:51.000Z
LEGO Jurassic World Part 14 - Raptors All Around,movie,https://www.youtube.com/watch?v=EdfZ1z5aauI,TBD,2015-07-03T16:14:38.000Z
LEGO Jurassic World Part 13 - Groping in the Dark,movie,https://www.youtube.com/watch?v=RHMJlBvioys,TBD,2015-07-02T12:39:12.000Z
Yoshi's Woolly World on a Broken Wii U - Welcome to the Glitchfest,movie,https://www.youtube.com/watch?v=60xdjd5ohms,TBD,2015-06-30T12:54:48.000Z
Yoshi's Woolly World Unboxing,movie,https://www.youtube.com/watch?v=kirwBVT1Ycg,TBD,2015-06-29T15:57:37.000Z
LEGO Jurassic World Part 12 - Over the Cliff,movie,https://www.youtube.com/watch?v=dMNOK_O_tTk,TBD,2015-07-01T13:25:11.000Z
LEGO Jurassic World Part 11 - Cruising and Cursing,movie,https://www.youtube.com/watch?v=6eJVJ6VICZc,TBD,2015-06-29T12:23:55.000Z
LEGO Jurassic World Part 10 - Welcome to Isla Sorna,movie,https://www.youtube.com/watch?v=qxkLToJ5ZMM,TBD,2015-06-27T12:45:07.000Z
LEGO Jurassic World Part 9 - Let's Get Ready for the Lost World,movie,https://www.youtube.com/watch?v=YCaV5q2qWE8,TBD,2015-06-26T15:00:05.000Z
LEGO Jurassic World Part 8 - Roaring Finale,movie,https://www.youtube.com/watch?v=D-yzt9TQajU,TBD,2015-06-25T14:28:40.000Z
LEGO Jurassic World Part 7 - Raptor Attack,movie,https://www.youtube.com/watch?v=4FiDQjyeano,TBD,2015-06-24T16:01:39.000Z
LEGO Jurassic World Part 6 - Gallimimus Chase,movie,https://www.youtube.com/watch?v=6IOpo9TptDA,TBD,2015-06-23T13:19:38.000Z
LEGO Jurassic World Part 5 - The Giant Tree,movie,https://www.youtube.com/watch?v=O_hJXyOKz74,TBD,2015-06-22T14:42:53.000Z
LEGO Jurassic World Part 4 - Timmy and the T-Rex,movie,https://www.youtube.com/watch?v=WOcP7zWSqkw,TBD,2015-06-20T12:59:41.000Z
LEGO Jurassic World Part 3 - Helping the Triceratops,movie,https://www.youtube.com/watch?v=QFWh5XUfWKU,TBD,2015-06-18T14:01:36.000Z
BioShock Infinite Part 11 - Sniper Rifle Rampage,movie,https://www.youtube.com/watch?v=4dSO6NaJQB4,TBD,2015-06-28T13:01:18.000Z
LEGO Jurassic World Part 2 - It's... It's a Dinosaur...,movie,https://www.youtube.com/watch?v=GRRZERjEzU8,TBD,2015-06-15T17:25:11.000Z
LEGO Jurassic World Part 1 - The Raptor Took our Wiener!,movie,https://www.youtube.com/watch?v=cvADiPhznlg,TBD,2015-06-13T10:19:31.000Z
BioShock Infinite Part 10 - Non Stop Action,movie,https://www.youtube.com/watch?v=DdosqgYe8AU,TBD,2015-06-17T16:06:18.000Z
BioShock Infinite Part 9 - Comstock's Tale,movie,https://www.youtube.com/watch?v=ef1xnVbJVXA,TBD,2015-06-11T13:36:34.000Z
BioShock Infinite Part 8 - History Lesson,movie,https://www.youtube.com/watch?v=zRA6J2xO4LY,TBD,2015-06-09T16:09:14.000Z
BioShock Infinite Part 7   Soldier's Field,movie,https://www.youtube.com/watch?v=kv8OOoT0t4Y,TBD,2015-06-07T15:59:45.000Z
BioShock Infinite Part 6 - "Kraft durch Freude",movie,https://www.youtube.com/watch?v=qWQFETynxCA,TBD,2015-06-06T17:08:40.000Z
BioShock Infinite Part 5 - Get the Girl!,movie,https://www.youtube.com/watch?v=IYl4uhrEyng,TBD,2015-06-05T15:03:27.000Z
BioShock Infinite Part 4 - Murder of Crows... and Fanatics!,movie,https://www.youtube.com/watch?v=3DBqS6lKEvo,TBD,2015-06-03T16:47:20.000Z
BioShock Infinite Part 3 - Now I Have a Machine Gun! Ho-Ho-Ho,movie,https://www.youtube.com/watch?v=_sRiQX6DqLE,TBD,2015-06-02T16:29:09.000Z
BioShock Infinite Part 2 - Fight Racism!,movie,https://www.youtube.com/watch?v=KEWT8yBGtxQ,TBD,2015-06-01T14:20:58.000Z
BioShock Infinite Part 1 - The Journey to Columbia,movie,https://www.youtube.com/watch?v=5xDCtePEDNE,TBD,2015-05-31T18:08:09.000Z
Yoshi's Island Part 26 - One Last Level! [The End],movie,https://www.youtube.com/watch?v=qVZH4GuKPss,TBD,2015-05-30T17:20:55.000Z
Yoshi's Island Part 25 - The Epic Final Boss Fight,movie,https://www.youtube.com/watch?v=Ximzf04kJvI,TBD,2015-05-29T14:51:29.000Z
Yoshi's Island Part 24 - Cave Trouble,movie,https://www.youtube.com/watch?v=xvNawpI35ps,TBD,2015-05-28T13:57:20.000Z
Yoshi's Island Part 23 - Tap Tap Terror!,movie,https://www.youtube.com/watch?v=YTJekyEBlVM,TBD,2015-05-27T13:50:25.000Z
Yoshi's Island Part 22 - Ski Fiasko,movie,https://www.youtube.com/watch?v=2HpBQf7tcgE,TBD,2015-05-25T16:01:53.000Z
Yoshi's Island Part 21 - Mario Galaxy Vibes at the Boss Fight,movie,https://www.youtube.com/watch?v=OE4LTMTCCj0,TBD,2015-05-24T18:06:05.000Z
Yoshi's Island Part 20 - Goonie Mania!,movie,https://www.youtube.com/watch?v=kIZ5mzYnBao,TBD,2015-05-23T14:06:54.000Z
Yoshi's Island Part 19 - Sluggy the Unshaven's Ann,movie,https://www.youtube.com/watch?v=vgiQFGNMWag,TBD,2015-05-22T19:36:27.000Z
Yoshi's Island Part 18 - Dashing through the Snow...,movie,https://www.youtube.com/watch?v=pOUc5gWyEss,TBD,2015-05-21T14:00:21.000Z
Yoshi's Island Part 17 - Blizzard!!! and Penguins!,movie,https://www.youtube.com/watch?v=nIoe1Bt6gNo,TBD,2015-05-20T17:01:46.000Z
Yoshi's Island Part 16 - Huffin' Puffin Power,movie,https://www.youtube.com/watch?v=iItC5ZEJHnA,TBD,2015-05-19T18:16:36.000Z
Yoshi's Island Part 15 - Chomp Rock 'n' Roll,movie,https://www.youtube.com/watch?v=X8gJ15ZvKdI,TBD,2015-05-18T19:21:05.000Z
Yoshi's Island Part 14 - The Cutest Boss Ever,movie,https://www.youtube.com/watch?v=j1ry_hG1LcE,TBD,2015-05-17T18:29:01.000Z
Yoshi's Island Part 13 - Good Start in World 4,movie,https://www.youtube.com/watch?v=iK1bhC2bXFo,TBD,2015-05-16T17:20:05.000Z
Yoshi's Island Part 12 - Audrey the Naval Piranha,movie,https://www.youtube.com/watch?v=HpvtBrjPZxw,TBD,2015-05-15T16:58:30.000Z
Yoshi's Island Part 11 - Flutter Jumping Through Treetops and Cozy Caves,movie,https://www.youtube.com/watch?v=2FYalz4DGbs,TBD,2015-05-14T17:16:57.000Z
Yoshi's Island Part 10 - To Boldly Go Where No Yoshi Has Gone Before,movie,https://www.youtube.com/watch?v=n5dHKSuPR-M,TBD,2015-05-13T17:21:47.000Z
Yoshi's Island Part 9 - Welcome to the Jungle,movie,https://www.youtube.com/watch?v=GqhvESLTDSI,TBD,2015-05-12T16:08:42.000Z
Yoshi's Island Part 8 - The Potted Ghost,movie,https://www.youtube.com/watch?v=g7-pyIrhVUI,TBD,2015-05-11T17:29:08.000Z
Mario Kart 8 - Let's Play Together w/ Sarah Part 2,movie,https://www.youtube.com/watch?v=pIbnepYIcQ8,TBD,2015-05-10T14:59:04.000Z
Splatoon Preview - Let Battle Commence!,movie,https://www.youtube.com/watch?v=o_Neg9Qj0qQ,TBD,2015-05-09T15:17:03.000Z
Yoshi's Island Part 7 - Lakitu! Of Course...,movie,https://www.youtube.com/watch?v=IYXg2UTSM5c,TBD,2015-05-08T18:39:32.000Z
Yoshi's Island Part 6 - A Whole Lot of Boos,movie,https://www.youtube.com/watch?v=Kqv5hE7aV9o,TBD,2015-05-07T13:14:09.000Z
Yoshi's Island Part 5 - Poochy Is Stupid,movie,https://www.youtube.com/watch?v=BUl9OaqcQMk,TBD,2015-05-06T16:29:35.000Z
Yoshi's Island Part 4 - Yoshi on Drugs,movie,https://www.youtube.com/watch?v=S1crZBWje78,TBD,2015-05-05T18:16:13.000Z
Yoshi's Island Part 3 - Mole Tanks and Fangs,movie,https://www.youtube.com/watch?v=ocVtBnCAYtk,TBD,2015-05-04T16:42:40.000Z
Mario Kart 8 - Let's Play Together w/ Sarah Part 1,movie,https://www.youtube.com/watch?v=c2kInkadWac,TBD,2015-05-03T15:52:42.000Z
Yoshi's Island Part 2 - Boss Fight Number One... Obelix!,movie,https://www.youtube.com/watch?v=smBcTuzg0hk,TBD,2015-05-02T19:50:02.000Z
Yoshi's Island Part 1 - The Search for Baby Luigi Begins,movie,https://www.youtube.com/watch?v=L31xYE0Chpk,TBD,2015-05-01T16:58:02.000Z
Let's Play Mario Kart 8 at 200cc Part 6 - Crossing and Bell Cup [The End],movie,https://www.youtube.com/watch?v=sQaBp0ZGXIs,TBD,2015-04-30T15:32:51.000Z
Let's Play Super Mario Bros. 3 #18: Showdown in Hell [The End],movie,https://www.youtube.com/watch?v=jqoGLw9eCmY,TBD,2015-04-29T16:19:16.000Z
Let's Play Mario Kart 8 at 200cc Part 5 - Egg and Triforce Cup,movie,https://www.youtube.com/watch?v=MW3F8jOwhCs,TBD,2015-04-28T15:22:36.000Z
Let's Play Mario Kart 8 at 200cc Part 4 - Special and Lightning Cup,movie,https://www.youtube.com/watch?v=VyhtC6y-YiE,TBD,2015-04-27T15:43:57.000Z
Let's Play Mario Kart 8 at 200cc Part 3 - Star and Leaf Cup,movie,https://www.youtube.com/watch?v=-uNKBxjjtGs,TBD,2015-04-26T13:25:31.000Z
Let's Play Mario Kart 8 at 200cc Part 2 - Flower and Banana Cup,movie,https://www.youtube.com/watch?v=IlbbKUT583U,TBD,2015-04-25T16:42:59.000Z
Let's Play Mario Kart 8 at 200cc Part 1 - Mushroom and Shell Cup,movie,https://www.youtube.com/watch?v=KNTVRhrsRVA,TBD,2015-04-24T13:47:51.000Z
Mario Kart 8: Animal Crossing DLC - All New Courses,movie,https://www.youtube.com/watch?v=R_Hys99m8uI,TBD,2015-04-23T13:57:57.000Z
Let's Play Super Mario Bros. 3 #17: Taking a Shortcut in World #8,movie,https://www.youtube.com/watch?v=rkmtuIdGv0s,TBD,2015-04-22T16:00:49.000Z
Let's Play Super Mario Bros. 3 #16: Last Hope Hammer Suit,movie,https://www.youtube.com/watch?v=d_5ghDgAk7s,TBD,2015-04-21T15:38:16.000Z
Let's Play Super Mario Bros. 3 #15: Muncher Madness,movie,https://www.youtube.com/watch?v=BwsdFXmV_hA,TBD,2015-04-20T13:05:44.000Z
Let's Play Super Mario Bros. 3 #14: Underwater Hellhole,movie,https://www.youtube.com/watch?v=JDfofx5vdp0,TBD,2015-04-19T13:46:31.000Z
Let's Play Super Mario Bros. 3 #13: Enter World #7,movie,https://www.youtube.com/watch?v=I_KUXG6l-Zk,TBD,2015-04-18T14:21:43.000Z
Let's Play Super Mario Bros. 3 #12: Running Amok in the Ice Cave,movie,https://www.youtube.com/watch?v=luA62MNvwg4,TBD,2015-04-17T14:01:52.000Z
Let's Play Super Mario Bros. 3 #11: Walking Piranha Plants; Slippery Ground,movie,https://www.youtube.com/watch?v=CKYjlR3_rjI,TBD,2015-04-16T16:47:23.000Z
Let's Play Super Mario Bros. 3 #10: Flame Chomps and Fire Fortresses!,movie,https://www.youtube.com/watch?v=nDGUkwihHqg,TBD,2015-04-15T13:22:07.000Z
Let's Play Super Mario Bros. 3 #09: Up in the Sky,movie,https://www.youtube.com/watch?v=aTT5sjvz7s0,TBD,2015-04-14T12:05:09.000Z
Let's Play Super Mario Bros. 3 #08: The Cave of Fail,movie,https://www.youtube.com/watch?v=XTw4AiBU3CU,TBD,2015-04-13T08:34:57.000Z
Let's Play Super Mario Bros. 3 #07: It's a me; Frog Mario!,movie,https://www.youtube.com/watch?v=bmWNPmE9s8U,TBD,2015-04-12T08:59:53.000Z
Let's Play Super Mario Bros. 3 #06: In the Land of the Giants,movie,https://www.youtube.com/watch?v=CLi20Ufurmc,TBD,2015-04-11T09:32:49.000Z
Let's Play Super Mario Bros. 3 #05: Toad Houses Everywhere!,movie,https://www.youtube.com/watch?v=LOKyZpGTjwI,TBD,2015-04-10T11:16:21.000Z
Let's Play Super Mario Bros. 3 #04: A Million Doors in the Mystery Castle,movie,https://www.youtube.com/watch?v=b2wiNxaXUGk,TBD,2015-04-09T09:01:06.000Z
Let's Play Super Mario Bros. 3 #03: Trouble in the Pyramid,movie,https://www.youtube.com/watch?v=lTBG0BnYw-w,TBD,2015-04-08T09:39:35.000Z
Let's Play Super Mario Bros. 3 #02: The First Flying Fortress,movie,https://www.youtube.com/watch?v=ZglX6lOvKZY,TBD,2015-04-07T11:19:50.000Z
Let's Play Super Mario Bros. 3 #01: All-Stars for the Win!,movie,https://www.youtube.com/watch?v=hHrKDUrxgxc,TBD,2015-04-06T10:10:04.000Z
Let's Play Ori and the Blind Forest #20: The Love of a Mother [The End],movie,https://www.youtube.com/watch?v=3zQnIuXxJV4,TBD,2015-04-05T10:52:57.000Z
Let's Play Ori and the Blind Forest #19: Jump 'n' Run Riddles in the Final Dungeon,movie,https://www.youtube.com/watch?v=uJyLPCfDirI,TBD,2015-04-04T09:50:44.000Z
Let's Play Ori and the Blind Forest #18: Lava Everywhere!,movie,https://www.youtube.com/watch?v=9y8U7pCT9jI,TBD,2015-04-03T09:08:01.000Z
Let's Play Ori and the Blind Forest #17: Preparing for the Last Dungeon,movie,https://www.youtube.com/watch?v=meYVq0qwgm4,TBD,2015-04-02T11:13:26.000Z
Let's Play Ori and the Blind Forest #16: Can Gumo Save Our Mother?,movie,https://www.youtube.com/watch?v=I5lCMD36cd4,TBD,2015-03-31T10:19:31.000Z
Let's Play Ori and the Blind Forest #15: High Above the Sorrow Pass,movie,https://www.youtube.com/watch?v=CVhYoWu0JYY,TBD,2015-03-29T17:48:49.000Z
Let's Play Ori and the Blind Forest #14: Another Epic Escape and Kuro's Sad Story,movie,https://www.youtube.com/watch?v=x7Kvr0dU074,TBD,2015-03-28T11:14:15.000Z
Let's Play Ori and the Blind Forest #13: Great Confusion in the Gravity Dungeon,movie,https://www.youtube.com/watch?v=sXsEmkFztt0,TBD,2015-03-26T13:54:02.000Z
Let's Play Ori and the Blind Forest #12: The Most Magical Place in Jump 'n' Run History,movie,https://www.youtube.com/watch?v=dgCLmosAREc,TBD,2015-03-25T13:57:46.000Z
Let's Play Ori and the Blind Forest #11: Lost in the Misty Woods,movie,https://www.youtube.com/watch?v=6rpTofrBFUI,TBD,2015-03-24T11:43:19.000Z
Let's Play Ori and the Blind Forest #10: The Valley of the Wind,movie,https://www.youtube.com/watch?v=8eujejrmHRA,TBD,2015-03-23T13:27:52.000Z
Let's Play Ori and the Blind Forest #09: Backtracking Has Never Been More Beautiful!,movie,https://www.youtube.com/watch?v=yX4NwacUnZ8,TBD,2015-03-22T13:02:10.000Z
Let's Play Ori and the Blind Forest #08: Epic Escape from Dungeon #1,movie,https://www.youtube.com/watch?v=4QnlHA2yTxM,TBD,2015-03-21T11:10:36.000Z
Let's Play Ori and the Blind Forest #07: Dashing Through the Ginso Tree,movie,https://www.youtube.com/watch?v=6bZX1p8YVXI,TBD,2015-03-20T12:27:22.000Z
Let's Play Ori and the Blind Forest #06: Back to the Top,movie,https://www.youtube.com/watch?v=wV8bzADMR1E,TBD,2015-03-19T11:59:48.000Z
Let's Play Ori and the Blind Forest #05: The Power of the Double Jump,movie,https://www.youtube.com/watch?v=tI66_TO27uY,TBD,2015-03-18T14:11:28.000Z
Let's Play Ori and the Blind Forest #04: The Gumon Chase,movie,https://www.youtube.com/watch?v=X_vnSeP_V3Q,TBD,2015-03-17T13:10:42.000Z
Let's Play Ori and the Blind Forest #03: Itsy Bitsy Spider,movie,https://www.youtube.com/watch?v=YSaVtEvb9vE,TBD,2015-03-16T12:15:07.000Z
Let's Play Ori and the Blind Forest #02: Wall Jumping Through the Spirit Caverns,movie,https://www.youtube.com/watch?v=L-cOf8D-ClA,TBD,2015-03-14T11:29:02.000Z
Let's Play Ori and the Blind Forest #01: All Alone in the Forest of Nibel,movie,https://www.youtube.com/watch?v=IXUSs0BN4PY,TBD,2015-03-12T15:30:06.000Z
Let's Play Super Mario World #19: One More Time [The End],movie,https://www.youtube.com/watch?v=_4B1KekCD-8,TBD,2015-03-11T09:19:33.000Z
Let's Play Super Mario World #18: Almost Losing my Mind in the Special Zone!,movie,https://www.youtube.com/watch?v=ei79j0R2co0,TBD,2015-03-09T15:00:10.000Z
Let's Play Super Mario World #17: Welcome to the Special Zone; Just Awesome!,movie,https://www.youtube.com/watch?v=GM6j9bywfKw,TBD,2015-03-07T15:04:42.000Z
Let's Play Super Mario World #16: The Star World,movie,https://www.youtube.com/watch?v=Lqg56t8SOH8,TBD,2015-03-05T11:17:30.000Z
Let's Play Super Mario World #15: Time to Rescue Our Princess!,movie,https://www.youtube.com/watch?v=W3_3UoCohW0,TBD,2015-03-03T16:28:31.000Z
Let's Play Super Mario World #14: The Two Hardest Secret Exits in the Game!,movie,https://www.youtube.com/watch?v=kIGWK1Q3cqI,TBD,2015-03-01T18:13:54.000Z
Let's Play Super Mario World #13: Mega Mole Mania and the Last of the Fortresses,movie,https://www.youtube.com/watch?v=DlrPPw14TMU,TBD,2015-02-27T12:46:32.000Z
Let's Play Super Mario World #12: The Hell That is Wendy's Castle,movie,https://www.youtube.com/watch?v=74n2V7ReVRg,TBD,2015-02-25T12:08:40.000Z
Let's Play Super Mario World #11: Jump 'n' Run Awesomness on the Chocolat Island,movie,https://www.youtube.com/watch?v=jMkEmToth1U,TBD,2015-02-22T14:45:53.000Z
Let's Play Super Mario World #10: Lakitu; the Death from Above,movie,https://www.youtube.com/watch?v=Sd85xJCsGYE,TBD,2015-02-20T20:52:42.000Z
Let's Play Super Mario World #09: The Forest of Illusion,movie,https://www.youtube.com/watch?v=Fi3U_JlGtR0,TBD,2015-02-18T15:41:37.000Z
Let's Play Super Mario World #08: Failing Hard in the Soda Lake,movie,https://www.youtube.com/watch?v=PNXYd0Q80rA,TBD,2015-02-16T10:08:36.000Z
Let's Play Super Mario World #07: Kamek is a Sucker!,movie,https://www.youtube.com/watch?v=Ys1wd8zSSMg,TBD,2015-02-14T10:54:20.000Z
Let's Play Super Mario World #06: Butter Bridge Madness,movie,https://www.youtube.com/watch?v=9O0R-JWkP_g,TBD,2015-02-10T13:14:05.000Z
Let's Play Super Mario World #05: Who needs Dragon Coins anyway?,movie,https://www.youtube.com/watch?v=pnQrGxV1uag,TBD,2015-02-07T13:29:05.000Z
Let's Play Super Mario World #04: Morton must die!,movie,https://www.youtube.com/watch?v=GjF_A7yQ-zM,TBD,2015-02-04T15:32:02.000Z
Let's Play Super Mario World #03: I ain't afraid 'o no ghost!,movie,https://www.youtube.com/watch?v=iE6Hydzsuws,TBD,2015-01-28T19:43:39.000Z
Let's Play Super Mario World #02: Secret Exits Everywhere,movie,https://www.youtube.com/watch?v=xgW9XFOObfo,TBD,2015-01-26T11:59:36.000Z
Let's Play Super Mario World #01: Bowser did it again!,movie,https://www.youtube.com/watch?v=3UEo3-zyhx8,TBD,2015-01-24T10:27:15.000Z
